
{
    "openapi": "3.0.0",
    "info": {
      "title": "API Portabilities",
      "description": "<TABLE><thead><tr><th>Version</th><th>Author</th><th>Data</th><th>Changes</th></tr></thead><tbody><tr><td>1.0.0</td><td>Enok Jesus</td><td>2020-09-11</td><td>[Habilitadores e-Care] Versão inicial. Busca de portabilidades de um cliente e atualização de janela de portabilidade.</td></tr><tr><td>1.1.0</td><td>Enok Jesus</td><td>2020-09-15</td><td>[Habilitadores e-Care] Inclusão de método GET para buscar janelas de agendamento para portabilidade.</td></tr><tr><td>1.1.1</td><td>Enok Jesus</td><td>2020-09-17</td><td>[Habilitadores e-Care] Inclusão de campos 'msisdn' e 'cpf' no request DO método PATCH. Refactorings de validação</td></tr><tr><td>1.1.2</td><td>Enok Jesus</td><td>2020-09-30</td><td>[Habilitadores e-Care] Campos 'msisdn' e 'cpf' no body em vez de no header (PATCH).</td></tr><tr><td>1.1.3</td><td>Enok Jesus</td><td>2020-09-30</td><td>[Habilitadores e-Care] Códigos de erro renomeados de PORTABILITY para PORTABILITIES.</td></tr><tr><td>1.1.3</td><td>Bruno Mansur</td><td>2020-12-08</td><td>[Habilitadores e-Care] Adicionando o header systemOrigin.</td></tr><tr><td>1.1.3</td><td>Bruno Mansur</td><td>2020-12-30</td><td>[Habilitadores e-Care] Adicionando o header X-Service-Chanel.</td></tr></tbody></TABLE>",
      "version": "1;2020-09-30",
      "contact": {
        "name": "Enok Jesus",
        "email": "enok.jesus-sysmap@claro.com.br"
      },
      "x-claro-domains": [
        "Resource Inventory"
      ]
    },
    "security": [
      {
        "ClientAuthHeader": []
      },
      {
        "ClientKeyHeader": []
      },
      {
        "UserTokenHeader": []
      }
    ],
    "paths": {
      "/portabilities": {
        "get": {
          "summary": "Lista portabilidades a partir do número do telefone e cpf, também pode filtrar por rg, cpf, passaporte e intervalo de datas. Backend: Barramento Claro Móvel: ListarBilhetesPortabilidade-v1.",
          "description": "Lista portabilidades a partir do número do telefone e cpf, também pode filtrar por rg, cpf, passaporte e intervalo de datas. Backend: Barramento Claro Móvel: ListarBilhetesPortabilidade-v1.<br><br>Para degustação usar o header: <small>X-Client-Auth: Bearer sLplB5MOvGb8yLWyUvG8qdhTl7WD</small>",
          "x-claro-backends": "Barramento Claro Móvel: ListarBilhetesPortabilidade-v1",
          "tags": [
            "portabilities"
          ],
          "parameters": [
            {
              "name": "X-QueryString",
              "description": "Parâmetros sensíveis: <b>msisdn\\*</b>, <b>cpf\\*</b>, rg e passport",
              "in": "header",
              "required": true,
              "schema": {
                "type": "string",
                "maxLength": 100,
                "pattern": "^((msisdn|cpf|rg|passport)=[0-9A-Z]{1,15}[&]{0,1}){2,4}$"
              },
              "examples": {
                "mandatory": {
                  "description": "Request com todos os campos obrigatórios.",
                  "value": "msisdn=11999960000&cpf=18176672033"
                },
                "full": {
                  "description": "Request com todos os campos possíveis.",
                  "value": "msisdn=1191000000&cpf=12345678901&rg=21522645X&passport=123456789X"
                }
              }
            },
            {
              "name": "Accept",
              "description": "Formato aceito",
              "in": "header",
              "required": true,
              "schema": {
                "type": "string",
                "enum" : ["application/json", "application/xml"],
                "example" : "application/json"
              }
            },
            {
              "name": "ticketType",
              "description": "Tipo de bilhete",
              "in": "query",
              "required": true,
              "schema": {
                "$ref": "#/components/schemas/ticketType"
              }
            },
            {
              "name": "startDate",
              "description": "Data inicial dos agendamentos de portabilidade",
              "in": "query",
              "required": false,
              "schema": {
                "type": "string",
                "format": "date",
                "example": "2020-11-01",
                "pattern": "^[0-9]{4}-[0-9]{2}-[0-9]{2}$",
                "maxLength": 10
              }
            },
            {
              "name": "endDate",
              "description": "Data final dos agendamentos de portabilidade",
              "in": "query",
              "required": false,
              "schema": {
                "type": "string",
                "format": "date",
                "pattern": "^[0-9]{4}-[0-9]{2}-[0-9]{2}$",
                "example": "2022-11-18",
                "maxLength": 10
              }
            }
          ],
          "responses": {
            "200": {
              "description": "Objeto de negócio contendo os dados retornados pela API caso existam. <br>Caso não seja encontrado nenhum bilhete de portabilidade, será retornada uma lista vazia, conforme exemplos disponíveis abaixo.",
              "content": {
                "application/json": {
                  "schema": {
                    "$ref": "#/components/schemas/portabilitiesGetResponse"
                  },
                  "examples": {
                    "retorno": {
                      "summary": "Bilhete de Portabilidade encontrado.",
                      "value": {
                        "apiVersion": "1;2020-09-30",
                        "transactionId": "1ca74fe9-aa41-424e-87cb-2d79b27c3264",
                        "data": {
                          "portabilities": [
                            {
                              "ticketId": 21526,
                              "internalTicketId": 3594969,
                              "msisdn": "11999232329",
                              "ticketType": "PORT-IN",
                              "donorOperator": {
                                "name": "VIVO S.A.",
                                "code": "0320"
                              },
                              "recipientOperator": {
                                "name": "CLARO",
                                "code": "0321"
                              },
                              "scheduledWindow": "2020-09-09T08:00:00",
                              "cpf": "33499494019",
                              "rg": "21522645X",
                              "passport": "123456789X",
                              "status": "ATIVA",
                              "statusReason": "ATUALIZACAO BILHETE ENVIADA EA AUTENTICADA"
                            }
                          ]
                        }
                      }
                    },
                    "vazio": {
                      "summary": "Nenhum Bilhete de Portabilidade encontrado.",
                      "value": {
                        "apiVersion": "1;2020-09-30",
                        "transactionId": "1ca74fe9-aa41-424e-87cb-2d79b27c3264",
                        "data": {
                          "portabilities": []
                        }
                      }
                    }
                  }
                },
                "application/xml": {
                  "schema": {
                    "$ref": "#/components/schemas/portabilitiesGetResponse"
                  },
                  "examples": {
                    "retorno": {
                      "summary": "Bilhete de Portabilidade encontrado.",
                      "value": "<xml><apiVersion>1;2020-09-30</apiVersion><transactionId>1ca74fe9-aa41-424e-87cb-2d79b27c3264</transactionId><data><portabilities><ticketId>21526</ticketId><internalTicketId>3594969</internalTicketId><msisdn>11999232329</msisdn><ticketType>PORT-IN</ticketType><donorOperator><name>VIVOS.A.</name><code>0320</code></donorOperator><recipientOperator><name>VIVOS.A.</name><code>0320</code></recipientOperator><scheduledWindow>2020-09-09T08:00:00</scheduledWindow><cpf>33499494019</cpf><rg>21522645X</rg><passport>123456789X</passport><status>ATIVA</status><statusReason>ATUALIZACAOBILHETEENVIADAEAAUTENTICADA</statusReason></portabilities></data></xml>"
                    },
                    "vazio": {
                      "summary": "Nenhum Bilhete de Portabilidade encontrado.",
                      "value": "<xml><apiVersion>1;2020-09-30</apiVersion><transactionId>1ca74fe9-aa41-424e-87cb-2d79b27c3264</transactionId><data><portabilities></portabilities></data></xml>"
                    }
                  }
                }
              }
            },
            "400": {
              "$ref": "#/components/responses/400"
            },
            "401": {
              "$ref": "#/components/responses/401"
            },
            "403": {
              "$ref": "#/components/responses/403"
            },
            "404": {
              "$ref": "#/components/responses/404"
            },
            "405": {
              "$ref": "#/components/responses/405"
            },
            "406": {
              "$ref": "#/components/responses/406"
            },
            "414": {
              "$ref": "#/components/responses/414"
            },
            "422": {
              "$ref": "#/components/responses/422"
            },
            "429": {
              "$ref": "#/components/responses/429"
            },
            "451": {
              "$ref": "#/components/responses/451"
            },
            "500": {
              "$ref": "#/components/responses/500"
            },
            "503": {
              "$ref": "#/components/responses/503"
            }
          }
        }
      },
      "/portabilities/scheduling-windows": {
        "get": {
          "summary": "Lista janelas (data/horas) para execução de portabilidades a partir do tipo de operadora e intervalo de datas. Backend: Barramento Claro Móvel: ListarDatasValidasPortabilidade-v1.",
          "description": "Lista janelas (data/horas) para execução de portabilidades a partir do tipo de operadora e intervalo de datas. Backend: Barramento Claro Móvel: ListarDatasValidasPortabilidade-v1.<br><br>Para degustação usar o header: <small>X-Client-Auth: Bearer sLplB5MOvGb8yLWyUvG8qdhTl7WD</small>",
          "x-claro-backends": "Barramento Claro Móvel: ListarDatasValidasPortabilidade-v1",
          "tags": [
            "portabilities"
          ],
          "parameters": [
            {
              "name": "operatorType",
              "description": "Tipo de operadora utilizado no filtro das janelas válidas",
              "in": "query",
              "required": true,
              "schema": {
                "type": "string",
                "enum": [
                  "MOVEL",
                  "FIXA"
                ],
                "default": "MOVEL",
                "example": "MOVEL"
              }
            },
            {
              "name": "startDate",
              "description": "Data inicial das janelas de portabilidade",
              "in": "query",
              "required": false,
              "schema": {
                "type": "string",
                "format": "date",
                "example": "2018-08-01",
                "pattern": "^[0-9]{4}-[0-9]{2}-[0-9]{2}$",
                "maxLength": 10
              }
            },
            {
              "name": "endDate",
              "description": "Data final das janelas de portabilidade",
              "in": "query",
              "required": false,
              "schema": {
                "type": "string",
                "format": "date",
                "example": "2018-09-01",
                "pattern": "^[0-9]{4}-[0-9]{2}-[0-9]{2}$",
                "maxLength": 10
              }
            }
          ],
          "responses": {
            "200": {
              "description": "Objeto de negócio contendo os dados retornados pela API caso existam. <br>Caso a resposta seja vazia o retorno será assim: <small><p>{<br>&nbsp;&nbsp;\"apiVersion\": \"1;2020-09-30\",<br>&nbsp;&nbsp;\"transactionId\": \"1ca74fe9-aa41-424e-87cb-2d79b27c3264\",<br>&nbsp;&nbsp;\"data\": {<br>&nbsp;&nbsp;&nbsp;\"schedulingWindows\": []<br>&nbsp;&nbsp;}<br>}</p></small>",
              "content": {
                "application/json": {
                  "schema": {
                    "$ref": "#/components/schemas/portabilitiesSchedulingWindowsGetResponse"
                  }
                },
                "application/xml": {
                  "schema": {
                    "$ref": "#/components/schemas/portabilitiesSchedulingWindowsGetResponse"
                  }
                }
              }
            },
            "400": {
              "$ref": "#/components/responses/400"
            },
            "401": {
              "$ref": "#/components/responses/401"
            },
            "403": {
              "$ref": "#/components/responses/403"
            },
            "404": {
              "$ref": "#/components/responses/404"
            },
            "405": {
              "$ref": "#/components/responses/405"
            },
            "406": {
              "$ref": "#/components/responses/406"
            },
            "414": {
              "$ref": "#/components/responses/414"
            },
            "422": {
              "$ref": "#/components/responses/422"
            },
            "429": {
              "$ref": "#/components/responses/429"
            },
            "451": {
              "$ref": "#/components/responses/451"
            },
            "500": {
              "$ref": "#/components/responses/500"
            },
            "503": {
              "$ref": "#/components/responses/503"
            }
          }
        }
      },
      "/portabilities/{ticketId}": {
        "patch": {
          "summary": "Atualiza a janela de uma portabilidade a partir do bilhete da EA e a nova data. Backend: Barramento Claro Móvel: AtualizarPortabilidade-v1.",
          "description": "Atualiza a janela de uma portabilidade a partir do bilhete da EA e a nova data. Backend: Barramento Claro Móvel: AtualizarPortabilidade-v1.<br><br>Para degustação usar o header: <small>X-Client-Auth: Bearer sLplB5MOvGb8yLWyUvG8qdhTl7WD</small>",
          "x-claro-backends": "Barramento Claro Móvel: AtualizarPortabilidade-v1",
          "tags": [
            "portabilities"
          ],
          "parameters": [
            {
              "name": "ticketId",
              "description": "Id bilhete EA",
              "in": "path",
              "required": true,
              "schema": {
                "type": "integer",
                "format": "int32",
                "minimum": 0,
                "maximum": 99999999
              },
              "example": 21526
            },
            {
              "name": "X-System-Origin",
              "description": "Código de identificação da aplicação que originou achamada ao serviço. Importante: deve identificar unicamente o sistema que implementa a fachada deCallback NotificarAtualizacaoPortabilidade para queseja possível rotear o callback para a mesmaaplicação que requisitou a atualização da portabilidade",
              "in": "header",
              "required": true,
              "schema": {
                "type": "integer",
                "format": "int32",
                "minimum": 0,
                "maximum": 999999999999999
                
              },
              "example": "FEA"
            },
            {
              "name": "X-Channel-Id",
              "description": "Canal em que a chamada foi originada: SITE, URA, LOJA, RCV.",
              "in": "header",
              "required": true,
              "schema": {
                "type": "integer",
                "format": "int32",
                "minimum": 0,
                "maximum": 1024               
              },
              "example": "FEA"
            }
          ],
          "requestBody": {
            "content": {
              "application/json": {
                "schema": {
                  "$ref": "#/components/schemas/portabilityPatchRequest"
                }
              },
              "application/xml": {
                "schema": {
                  "$ref": "#/components/schemas/portabilityPatchRequest"
                }
              }
            }
          },
          "responses": {
            "200": {
              "description": "Objeto de negócio contendo os dados retornados pela API caso existam.",
              "content": {
                "application/json": {
                  "schema": {
                    "$ref": "#/components/schemas/portabilityPatchResponse"
                  }
                },
                "application/xml": {
                  "schema": {
                    "$ref": "#/components/schemas/portabilityPatchResponse"
                  }
                }
              }
            },
            "400": {
              "$ref": "#/components/responses/400"
            },
            "401": {
              "$ref": "#/components/responses/401"
            },
            "403": {
              "$ref": "#/components/responses/403"
            },
            "404": {
              "$ref": "#/components/responses/404"
            },
            "405": {
              "$ref": "#/components/responses/405"
            },
            "406": {
              "$ref": "#/components/responses/406"
            },
            "413": {
              "$ref": "#/components/responses/413"
            },
            "422": {
              "$ref": "#/components/responses/422_PATCH"
            },
            "429": {
              "$ref": "#/components/responses/429"
            },
            "451": {
              "$ref": "#/components/responses/451"
            },
            "500": {
              "$ref": "#/components/responses/500"
            },
            "503": {
              "$ref": "#/components/responses/503"
            }
          }
        }
      }
    },
    "servers": [
      {
        "url": "https://api-sandbox.claro.com.br/mobile/v1",
        "description": "Sandbox (SaaS)"
      },
      {
        "url": "https://test01.apigw.claro.com.br/mobile/v1",
        "description": "Test (on-premises)"
      },
      {
        "url": "https://api-test.claro.com.br/mobile/v1",
        "description": "Test (SaaS)"
      },
      {
        "url": "https://api-homolog.claro.com.br/mobile/v1",
        "description": "Homologação (SaaS)"
      },
      {
        "url": "https://cas.apigw.claro.com.br/mobile/v1",
        "description": "Production (on-premises)"
      },
      {
        "url": "https://api.claro.com.br/mobile/v1",
        "description": "Produção (SaaS)"
      }
    ],
    "components": {
      "securitySchemes": {
        "ClientAuthHeader": {
          "type": "apiKey",
          "in": "header",
          "name": "X-Client-Auth"
        },
        "ClientKeyHeader": {
          "type": "apiKey",
          "in": "header",
          "name": "X-Client-Key"
        },
        "UserTokenHeader": {
          "type": "http",
          "scheme": "bearer"
        }
      },
      "schemas": {
        "portabilitiesGetResponse": {
          "description": "Objeto de negócio contendo os dados retornados pela API caso existam.",
          "type": "object",
          "required": [
            "apiVersion",
            "transactionId",
            "data"
          ],
          "properties": {
            "apiVersion": {
              "description": "Versão da API.",
              "type": "string",
              "example": "1;2020-09-30",
              "maxLength": 32
            },
            "transactionId": {
              "description": "Identificador da transação gerado pela API.",
              "type": "string",
              "example": "1ca74fe9-aa41-424e-87cb-2d79b27c3264"
            },
            "data": {
              "type": "object",
              "required": [
                "portabilities"
              ],
              "properties": {
                "portabilities": {
                  "type": "array",
                  "items": {
                    "$ref": "#/components/schemas/portability"
                  },
                  "maxItems": 100
                }
              }
            }
          }
        },
        "portabilitiesSchedulingWindowsGetResponse": {
          "description": "Objeto de negócio contendo os dados retornados pela API caso existam.",
          "type": "object",
          "required": [
            "apiVersion",
            "transactionId",
            "data"
          ],
          "properties": {
            "apiVersion": {
              "description": "Versão da API.",
              "type": "string",
              "example": "1;2020-09-30",
              "maxLength": 32
            },
            "transactionId": {
              "description": "Identificador da transação gerado pela API.",
              "type": "string",
              "example": "1ca74fe9-aa41-424e-87cb-2d79b27c3264",
              "maxLength": 32
            },
            "data": {
              "type": "object",
              "required": [
                "schedulingWindows"
              ],
              "properties": {
                "schedulingWindows": {
                  "type": "array",
                  "maxItems": 100,
                  "items": {
                    "$ref": "#/components/schemas/schedulingWindow"
                  }
                }
              }
            }
          }
        },
        "portabilityPatchRequest": {
          "description": "Objeto de negócio contendo os dados submetidos à API.",
          "type": "object",
          "additionalProperties": false,
          "required": [
            "data"
          ],
          "properties": {
            "data": {
              "$ref": "#/components/schemas/portabilityPatchRequestObj"
            }
          }
        },
        "portabilityPatchResponse": {
          "description": "Objeto de negócio contendo os dados retornados pela API caso existam.",
          "type": "object",
          "required": [
            "apiVersion",
            "transactionId",
            "data"
          ],
          "properties": {
            "apiVersion": {
              "description": "Versão da API.",
              "type": "string",
              "example": "1;2020-09-30"
            },
            "transactionId": {
              "description": "Identificador da transação gerado pela API.",
              "type": "string",
              "example": "1ca74fe9-aa41-424e-87cb-2d79b27c3264"
            },
            "data": {
              "$ref": "#/components/schemas/portabilityPatchResponseObj"
            }
          }
        },
        "portability": {
          "description": "Objeto de negócio contendo os dados retornados pela API caso existam.",
          "type": "object",
          "required": [
            "ticketId",
            "internalTicketId",
            "msisdn",
            "ticketType",
            "donorOperator",
            "recipientOperator",
            "scheduledWindow",
            "status"
          ],
          "properties": {
            "ticketId": {
              "description": "Id bilhete EA",
              "type": "integer",
              "example": 21526
            },
            "internalTicketId": {
              "description": "Id bilhete Claro",
              "type": "integer",
              "example": 3594969
            },
            "msisdn": {
              "description": "Número do telefone",
              "type": "string",
              "example": "11999232329"
            },
            "ticketType": {
              "$ref": "#/components/schemas/ticketType"
            },
            "donorOperator": {
              "description": "Operadora doadora do número telefônico",
              "type": "object",
              "allOf": [
                {
                  "$ref": "#/components/schemas/operator"
                }
              ]
            },
            "recipientOperator": {
              "description": "Operadora receptora do número telefônico",
              "type": "object",
              "allOf": [
                {
                  "$ref": "#/components/schemas/operator"
                },
                {
                  "example": {
                    "name": "CLARO",
                    "code": "0321"
                  }
                }
              ]
            },
            "scheduledWindow": {
              "description": "Janela agendada",
              "type": "string",
              "format": "date",
              "example": "2020-09-09T08:00:00"
            },
            "cpf": {
              "description": "CPF do cliente",
              "type": "string",
              "pattern": "[0-9]{11}",
              "example": "33499494019"
            },
            "rg": {
              "description": "RG do cliente",
              "type": "string",
              "example": "21522645X"
            },
            "passport": {
              "description": "Passaporte do cliente",
              "type": "string",
              "example": "123456789X"
            },
            "status": {
              "$ref": "#/components/schemas/status"
            },
            "statusReason": {
              "description": "Descrição do motivo pelo qual o bilhete assumiu a situação; exemplo, para CONFLITO, indica o motivo do bilhete entrar em conflito: se Doadora rejeitou a autenticação, se EA atualizou o bilhete automaticamente por falta de autenticação da Doadora, etc.",
              "type": "string",
              "example": "ATUALIZACAO BILHETE ENVIADA EA AUTENTICADA"
            }
          }
        },
        "schedulingWindow": {
          "description": "Objeto de negócio contendo os dados retornados pela API caso existam.",
          "type": "object",
          "required": [
            "startDateTime",
            "isAvailableForMobile",
            "isAvailableForLandline"
          ],
          "properties": {
            "startDateTime": {
              "description": "Data e hora de início da janela",
              "type": "string",
              "format": "date",
              "example": "2020-09-09T08:00:00"
            },
            "isAvailableForMobile": {
              "description": "Flag para indicar se a janela está disponível para solicitações de portabilidade de números móveis (operadoras SMP)",
              "type": "boolean",
              "example": true
            },
            "isAvailableForLandline": {
              "description": "Flag para indicar se a janela está disponível para solicitações de portabilidade de números fixos (operadoras STFC)",
              "type": "boolean",
              "example": false
            }
          }
        },
        "portabilityPatchRequestObj": {
          "description": "Objeto que representa uma solicitação de atualização de janela de uma portabilidade.",
          "type": "object",
           "additionalProperties": false,
          "required": [
            "msisdn",
            "cpf",
            "schedulingWindow"
          ],
          "properties": {
            "msisdn": {
              "description": "Número do telefone",
              "type": "string",
              "pattern": "^[0-9]{11}$",
              "example": "11999232329"
            },
            "cpf": {
              "description": "CPF do cliente",
              "type": "string",
              "pattern": "^[0-9]{11}$",
              "example": "33499494019"
            },
            "schedulingWindow": {
              "description": "Nova janela",
              "type": "string",
              "format": "date-time",
              "pattern": "^(\\d{4})-(\\d{2})-(\\d{2})T(\\d{2})\\:(\\d{2})\\:(\\d{2})[+-](\\d{2})\\:(\\d{2})$",
              "example": "2020-09-11T08:00:00-03:00"
            }
          }
        },
        "portabilityPatchResponseObj": {
          "description": "Objeto de negócio contendo o resultado de uma atualização de janela de portabilidade.",
          "type": "object",
          "required": [
            "isUpdated",
            "requestId"
          ],
          "properties": {
            "isUpdated": {
              "description": "Indica se o procedimento de atualização foi aceito pelo provedor do serviço.",
              "type": "boolean",
              "example": true
            },
            "requestId": {
              "description": "Código de identificação do recibo de entrega do pedido de atualização para correlação. Este código e a estrutura MetaInfType utilizada na requisição são utilizados como entrada do serviço NotificarAtualizacaoPortabilidade para que seja possível rotear o callback para a aplicação de origem e identificar a qual requisição de atualização se refere o callback",
              "type": "string",
              "example": "21526"
            }
          }
        },
        "ticketType": {
          "type": "string",
          "description": "Tipo de bilhete",
          "enum": [
            "PORT-IN",
            "PORT-OUT",
            "BROADCAST"
          ],
          "default": "PORT-IN",
          "example": "PORT-IN"
        },
        "status": {
          "type": "string",
          "description": "Status do bilhete da EA",
          "enum": [
            "ATIVA",
            "CANCELADA",
            "CANCELAMENTO-PENDENTE",
            "CONFLITO",
            "DEVOLUCAO_INICIADA",
            "DEVOLUCAO_COMPLETA",
            "DEVOLUCAO_COMPLETA_ORIGINAL",
            "DEVOLUCAO_PENDENTE",
            "FALHA",
            "FALHA-PARCIAL",
            "PENDENTE",
            "SUSPENSA"
          ],
          "example": "ATIVA"
        },
        "operator": {
          "description": "Operadora de telefonia",
          "type": "object",
          "required": [
            "name",
            "code"
          ],
          "properties": {
            "name": {
              "description": "Nome da operadora",
              "type": "string",
              "example": "VIVO S.A."
            },
            "code": {
              "description": "Código da operadora",
              "type": "string",
              "pattern": "0(1|3)[0-9]{2}",
              "example": "0320"
            }
          }
        },
        "error": {
          "description": "Objeto retornado na ocorrência de algum erro (4xx/5xx)",
          "type": "object",
          "required": [
            "apiVersion",
            "transactionId",
            "error"
          ],
          "properties": {
            "apiVersion": {
              "description": "Retorna sempre a versão major e minor da API efetivamente consumida. O formato é “versão major;versão minor”. Exemplo: “apiVersion”: “2;2015-08-12”. Quando a versão minor não é solicitada, a versão contratada pelo cliente é retornada. Quando não há restrição de contratação, retorna a última disponível.",
              "type": "string",
              "example": "1;2020-09-30"
            },
            "transactionId": {
              "description": "Retorna o identificador de rastreabilidade de transação gerado pelo API. Caso o identificador foi fornecido pelo cliente, o mesmo é ecoado sem alteração.",
              "type": "string",
              "example": "1ca74fe9-aa41-424e-87cb-2d79b27c3264"
            },
            "error": {
              "type": "object",
              "properties": {
                "httpCode": {
                  "description": "Código de erro HTTP",
                  "type": "integer"
                },
                "errorCode": {
                  "description": "Código de erro interno da API no formato. Ex.: API-3566. Esse código poderá ser utilizado internamente pelo cliente para mapeamento customizado da mensagem de erro.",
                  "type": "string"
                },
                "message": {
                  "description": "Mensagem de erro resumida",
                  "type": "string"
                },
                "detailedMessage": {
                  "description": "Mensagem de erro detalhada",
                  "type": "string"
                },
                "link": {
                  "description": "Objeto para conter o link para a página com a documentação detalhada dos códigos e descrições dos erros no API Portal\n",
                  "type": "object",
                  "properties": {
                    "rel": {
                      "type": "string",
                      "enum": [
                        "related"
                      ],
                      "description": "Para referenciar a página de erros do API portal será utilizada a semântica “related” nesse cenário"
                    },
                    "href": {
                      "type": "string",
                      "description": "URL completa do recurso"
                    }
                  }
                }
              }
            }
          },
          "xml": {
            "name": "xml"
          }
        }
      },
      "responses": {
        "400": {
          "description": "Bad Request",
          "content": {
            "application/json": {
              "schema": {
                "$ref": "#/components/schemas/error"
              },
              "example": {
                "apiVersion": "1;2020-09-30",
                "transactionId": "1ca74fe9-aa41-424e-87cb-2d79b27c3264",
                "error": {
                  "httpCode": "400",
                  "errorCode": "API-PORTABILITIES-400",
                  "message": "Bad Request",
                  "detailedMessage": "Bad Request",
                  "link": {
                    "rel": "related",
                    "href": "https://api.claro.com.br/docs"
                  }
                }
              }
            },
            "application/xml": {
              "schema": {
                "$ref": "#/components/schemas/error"
              }
            }
          }
        },
        "401": {
          "description": "Unauthorized",
          "content": {
            "application/json": {
              "schema": {
                "$ref": "#/components/schemas/error"
              },
              "example": {
                "apiVersion": "1;2020-09-30",
                "transactionId": "1ca74fe9-aa41-424e-87cb-2d79b27c3264",
                "error": {
                  "httpCode": "401",
                  "errorCode": "API-PORTABILITIES-401",
                  "message": "Unauthorized",
                  "detailedMessage": "Unauthorized",
                  "link": {
                    "rel": "related",
                    "href": "https://api.claro.com.br/docs"
                  }
                }
              }
            },
            "application/xml": {
              "schema": {
                "$ref": "#/components/schemas/error"
              }
            }
          }
        },
        "403": {
          "description": "Forbidden",
          "content": {
            "application/json": {
              "schema": {
                "$ref": "#/components/schemas/error"
              },
              "example": {
                "apiVersion": "1;2020-09-30",
                "transactionId": "1ca74fe9-aa41-424e-87cb-2d79b27c3264",
                "error": {
                  "httpCode": "403",
                  "errorCode": "API-PORTABILITIES-403",
                  "message": "Forbidden",
                  "detailedMessage": "Client authorization failed.",
                  "link": {
                    "rel": "related",
                    "href": "https://api.claro.com.br/docs"
                  }
                }
              }
            },
            "application/xml": {
              "schema": {
                "$ref": "#/components/schemas/error"
              }
            }
          }
        },
        "404": {
          "description": "Not Found",
          "content": {
            "application/json": {
              "schema": {
                "$ref": "#/components/schemas/error"
              },
              "example": {
                "apiVersion": "1;2020-09-30",
                "transactionId": "1ca74fe9-aa41-424e-87cb-2d79b27c3264",
                "error": {
                  "httpCode": "404",
                  "errorCode": "API-PORTABILITIES-404",
                  "message": "Not found",
                  "detailedMessage": "Resource not found.",
                  "link": {
                    "rel": "related",
                    "href": "https://api.claro.com.br/docs"
                  }
                }
              }
            },
            "application/xml": {
              "schema": {
                "$ref": "#/components/schemas/error"
              }
            }
          }
        },
        "405": {
          "description": "Method Not Allowed",
          "content": {
            "application/json": {
              "schema": {
                "$ref": "#/components/schemas/error"
              },
              "example": {
                "apiVersion": "1;2020-09-30",
                "transactionId": "1ca74fe9-aa41-424e-87cb-2d79b27c3264",
                "error": {
                  "httpCode": "405",
                  "errorCode": "API-PORTABILITIES-405",
                  "message": "Method Not Allowed",
                  "detailedMessage": "Unavailable HTTP method.",
                  "link": {
                    "rel": "related",
                    "href": "https://api.claro.com.br/docs"
                  }
                }
              }
            },
            "application/xml": {
              "schema": {
                "$ref": "#/components/schemas/error"
              }
            }
          }
        },
        "406": {
          "description": "Not Acceptable",
          "content": {
            "application/json": {
              "schema": {
                "$ref": "#/components/schemas/error"
              },
              "example": {
                "apiVersion": "1;2020-09-30",
                "transactionId": "1ca74fe9-aa41-424e-87cb-2d79b27c3264",
                "error": {
                  "httpCode": "406",
                  "errorCode": "API-PORTABILITIES-406",
                  "message": "Request Not Acceptable",
                  "detailedMessage": "Requested content type not acceptable.",
                  "link": {
                    "rel": "related",
                    "href": "https://api.claro.com.br/docs"
                  }
                }
              }
            },
            "application/xml": {
              "schema": {
                "$ref": "#/components/schemas/error"
              }
            }
          }
        },
        "413": {
          "description": "Request Entity Too Large",
          "content": {
            "application/json": {
              "schema": {
                "$ref": "#/components/schemas/error"
              },
              "example": {
                "apiVersion": "1;2020-09-30",
                "transactionId": "1ca74fe9-aa41-424e-87cb-2d79b27c3264",
                "error": {
                  "httpCode": "413",
                  "errorCode": "API-PORTABILITIES-413",
                  "message": "Request Entity Too Large",
                  "detailedMessage": "Payload limits check failed.",
                  "link": {
                    "rel": "related",
                    "href": "https://api.claro.com.br/docs"
                  }
                }
              }
            },
            "application/xml": {
              "schema": {
                "$ref": "#/components/schemas/error"
              }
            }
          }
        },
        "414": {
          "description": "Request-URI Too Large",
          "content": {
            "application/json": {
              "schema": {
                "$ref": "#/components/schemas/error"
              },
              "example": {
                "apiVersion": "1;2020-09-30",
                "transactionId": "1ca74fe9-aa41-424e-87cb-2d79b27c3264",
                "error": {
                  "httpCode": "414",
                  "errorCode": "API-PORTABILITIES-414",
                  "message": "Request-URI Too Large",
                  "detailedMessage": "URI limits check failed.",
                  "link": {
                    "rel": "related",
                    "href": "https://api.claro.com.br/docs"
                  }
                }
              }
            },
            "application/xml": {
              "schema": {
                "$ref": "#/components/schemas/error"
              }
            }
          }
        },
        "422": {
          "description": "Unprocessable Entity - Identify business errors that can be detailed according to backend system rules.",
          "content": {
            "application/json": {
              "schema": {
                "$ref": "#/components/schemas/error"
              },
              "example": {
                "apiVersion": "1;2020-09-30",
                "transactionId": "1ca74fe9-aa41-424e-87cb-2d79b27c3264",
                "error": {
                  "httpCode": "422",
                  "errorCode": "API-PORTABILITIES-422",
                  "message": "Unprocessable Entity.",
                  "detailedMessage": "Unprocessable Entity.",
                  "link": {
                    "rel": "related",
                    "href": "https://api.claro.com.br/docs"
                  }
                }
              }
            },
            "application/xml": {
              "schema": {
                "$ref": "#/components/schemas/error"
              }
            }
          }
        },
        "429": {
          "description": "Too Many Requests",
          "content": {
            "application/json": {
              "schema": {
                "$ref": "#/components/schemas/error"
              },
              "example": {
                "apiVersion": "1;2020-09-30",
                "transactionId": "1ca74fe9-aa41-424e-87cb-2d79b27c3264",
                "error": {
                  "httpCode": "429",
                  "errorCode": "API-PORTABILITIES-429",
                  "message": "Too Many Requests",
                  "detailedMessage": "The maximum request limit for this MSISDN has been exceeded.",
                  "link": {
                    "rel": "related",
                    "href": "https://api.claro.com.br/docs"
                  }
                }
              }
            },
            "application/xml": {
              "schema": {
                "$ref": "#/components/schemas/error"
              }
            }
          }
        },
        "451": {
          "description": "Unavailable For Legal Reasons",
          "content": {
            "application/json": {
              "schema": {
                "$ref": "#/components/schemas/error"
              },
              "example": {
                "apiVersion": "1;2020-09-30",
                "transactionId": "1ca74fe9-aa41-424e-87cb-2d79b27c3264",
                "error": {
                  "httpCode": "451",
                  "errorCode": "API-PORTABILITIES-451",
                  "message": "Unavailable For Legal Reasons",
                  "detailedMessage": "Unavailable For Legal Reasons.",
                  "link": {
                    "rel": "related",
                    "href": "https://api.claro.com.br/docs"
                  }
                }
              }
            },
            "application/xml": {
              "schema": {
                "$ref": "#/components/schemas/error"
              }
            }
          }
        },
        "500": {
          "description": "Internal Server Error",
          "content": {
            "application/json": {
              "schema": {
                "$ref": "#/components/schemas/error"
              },
              "example": {
                "apiVersion": "1;2020-09-30",
                "transactionId": "1ca74fe9-aa41-424e-87cb-2d79b27c3264",
                "error": {
                  "httpCode": "500",
                  "errorCode": "API-PORTABILITIES-500",
                  "message": "Internal Server Error",
                  "detailedMessage": "Internal Server Error.",
                  "link": {
                    "rel": "related",
                    "href": "https://api.claro.com.br/docs"
                  }
                }
              }
            },
            "application/xml": {
              "schema": {
                "$ref": "#/components/schemas/error"
              }
            }
          }
        },
        "503": {
          "description": "Service unavailable",
          "content": {
            "application/json": {
              "schema": {
                "$ref": "#/components/schemas/error"
              },
              "example": {
                "apiVersion": "1;2020-09-30",
                "transactionId": "1ca74fe9-aa41-424e-87cb-2d79b27c3264",
                "error": {
                  "httpCode": "503",
                  "errorCode": "API-PORTABILITIES-503",
                  "message": "Service Unavailable",
                  "detailedMessage": "Service Unavailable.",
                  "link": {
                    "rel": "related",
                    "href": "https://api.claro.com.br/docs"
                  }
                }
              }
            },
            "application/xml": {
              "schema": {
                "$ref": "#/components/schemas/error"
              }
            }
          }
        },
        "422_PATCH": {
          "description": "Unprocessable Entity - Identify business errors that can be detailed according to backend system rules. <BR>The possible values are: <BR><UL><LI>API-PORTABILITIES-001: The ticket already canceled or activated.<BR><LI>API-PORTABILITIES-002: The ticket is already being processed.<BR><LI>API-PORTABILITIES-003: One of these actions must be performed: habilitation, rescheduling, register update.<BR><LI>API-PORTABILITIES-004: Minimum period of two working days in the future not complied with.<BR><LI>API-PORTABILITIES-005: Maximum period of thirty days exceeded.<BR><LI>API-PORTABILITIES-006: Scheduling window date/time unregistered.<BR><LI>API-PORTABILITIES-007: System Origin is invalid.<BR><LI>API-PORTABILITIES-008: The ticket was not found.<BR></UL>",
          "content": {
            "application/json": {
              "schema": {
                "$ref": "#/components/schemas/error"
              },
              "example": {
                "apiVersion": "1;2020-09-30",
                "transactionId": "1ca74fe9-aa41-424e-87cb-2d79b27c3264",
                "error": {
                  "httpCode": "422",
                  "errorCode": "API-PORTABILITIES-422",
                  "message": "Unprocessable Entity.",
                  "detailedMessage": "Unprocessable Entity.",
                  "link": {
                    "rel": "related",
                    "href": "https://api.claro.com.br/docs"
                  }
                }
              }
            },
            "application/xml": {
              "schema": {
                "$ref": "#/components/schemas/error"
              }
            }
          }
        }
      }
    }
  }
